MCDM · JMcDM: Julia package for multiple-criteria decision making
…
julia> df = makeDecisionMatrix(decmat)
38×6 DataFrame
 Row │ Crt1     Crt2     Crt3     Crt4     Crt5     Crt6     
     │ Float64  Float64  Float64  Float64  Float64  Float64  
─────┼───────────────────────────────────────────────────────
   1 │     2.5    240.0     57.0     45.0      1.1  0.333333
   2 │     2.5    285.0     60.0     75.0      4.0  0.428571
   3 │     4.5    320.0    100.0     65.0      7.5  1.11111
   4 │     4.5    365.0    100.0     90.0      7.5  1.11111
   5 │     5.0    400.0    100.0     90.0     11.0  1.11111
   6 │     2.5    225.0     60.0     45.0      1.1  0.333333
   7 │     2.5    270.0     57.0     60.0      4.0  0.428571
   8 │     4.5    330.0    100.0     70.0      7.5  1.11111
   9 │     4.5    365.0    100.0     80.0      7.5  1.11111
  ⋮  │    ⋮        ⋮        ⋮        ⋮        ⋮        ⋮
  30 │     7.0    550.0    200.0    150.0     30.0  2.30769
  31 │     6.0    500.0    180.0    140.0     15.0  2.30769
  32 │     6.0    500.0    180.0    140.0     18.5  2.30769
  33 │     6.0    500.0    180.0    140.0     22.0  2.30769
  34 │     7.0    500.0    180.0    140.0     30.0  2.30769
  35 │     7.0    500.0    200.0    140.0     37.0  2.30769
  36 │     7.0    500.0    200.0    140.0     45.0  2.30769
  37 │     7.0    500.0    200.0    140.0     55.0  2.30769
  38 │     7.0    500.0    200.0    140.0     75.0  2.30769
                                              20 rows omitted
…
